…
```r
impute$day <- strftime(impute$date, format = "%A")
impute$weekday <- as.character(rep(0,17568))
filterWeekend <- c("Saturday", "Sunday")
impute$weekday[impute$day %in% filterWeekend] <- 1
impute %>% group_by(weekday, interval)
```

```
## # A tibble: 17,568 × 5
## # Groups:   weekday, interval [576]
##     steps date       interval day    weekday
##     <dbl> <chr>         <int> <chr>  <chr>  
##  1 1.49   2012-10-01        0 Monday 0      
##  2 0.295  2012-10-01        5 Monday 0      
##  3 0.115  2012-10-01       10 Monday 0      
##  4 0.131  2012-10-01       15 Monday 0      
##  5 0.0656 2012-10-01       20 Monday 0      
##  6 1.82   2012-10-01       25 Monday 0      
##  7 0.459  2012-10-01       30 Monday 0      
##  8 0.754  2012-10-01       35 Monday 0      
##  9 0      2012-10-01       40 Monday 0      
## 10 1.28   2012-10-01       45 Monday 0      
## # … with 17,558 more rows
```
…
